Understanding the relationship between stocks of community wealth and food system
…
summary_stats <- comm_stocks %>%
  group_by(variable_name) %>%
  summarize(
    mean = mean(value),
    median = median(value),
    sd = sd(value),
    max = max(value),
    min = min(value)
  )

print(summary_stats)

# A tibble: 39 × 6
   variable_name     mean    median       sd      max     min
   <chr>            <dbl>     <dbl>    <dbl>    <dbl>   <dbl>
 1 acre_FSA        0.0148   0.00330   0.0262    0.254 0      
 2 acre_NFS        0.0476   0         0.124     0.936 0      
 3 assn            1.40     1.27      0.717     7.08  0      
 4 broad_11        0.267    0.00871   0.353     1     0      
 5 broad_16        0.635    0.73      0.323     1     0      
 6 conserve_acre   0.0143   0.00392   0.0278    0.284 0      
 7 create_indus  161.     139.      111.     1779.    0      
 8 create_jobs     0.160    0.150     0.0584    0.502 0.00540
 9 deposits       22.5     16.9      51.1    2363.    0      
10 ed_attain       0.262    0.235     0.119     1.22  0.0244 
# ℹ 29 more rows
…
